No,Name,Type 1,Type 2,Total,HP,Attack,Defense,Sp. Atk,Sp. Def,Speed,Xtrans,Ytrans,Cluster
1,Bulbasaur,Grass,Poison,318,45,49,49,65,65,45,0.23783783783783785,0.19555555555555557,0
2,Ivysaur,Grass,Poison,405,60,62,63,80,80,60,0.3081081081081081,0.2577777777777778,0
3,Venusaur,Grass,Poison,525,80,82,83,100,100,80,0.41621621621621624,0.3466666666666667,1
3,Venusaur Mega Venusaur,Grass,Poison,625,80,100,123,122,120,80,0.5135135135135135,0.5244444444444445,1
4,Charmander,Fire,,309,39,52,43,60,50,65,0.25405405405405407,0.1688888888888889,0
5,Charmeleon,Fire,,405,58,64,58,80,65,80,0.31891891891891894,0.23555555555555555,0
6,Charizard,Fire,Flying,534,78,84,78,109,85,100,0.42702702702702705,0.3244444444444444,1
6,Charizard Mega Charizard X,Fire,Dragon,634,78,130,111,130,85,100,0.6756756756756757,0.4711111111111111,1
6,Charizard Mega Charizard Y,Fire,Flying,634,78,104,78,159,115,100,0.5351351351351351,0.3244444444444444,1
7,Squirtle,Water,,314,44,48,65,50,64,43,0.23243243243243245,0.26666666666666666,0
8,Wartortle,Water,,405,59,63,80,65,80,58,0.31351351351351353,0.3333333333333333,0
9,Blastoise,Water,,530,79,83,100,85,105,78,0.42162162162162165,0.4222222222222222,1
9,Blastoise Mega Blastoise,Water,,630,79,103,120,135,115,78,0.5297297297297298,0.5111111111111111,1
10,Caterpie,Bug,,195,45,30,35,20,20,45,0.13513513513513514,0.13333333333333333,0
11,Metapod,Bug,,205,50,20,55,25,25,30,0.08108108108108109,0.2222222222222222,0
12,Butterfree,Bug,Flying,395,60,45,50,90,80,70,0.21621621621621623,0.2,0
13,Weedle,Bug,Poison,195,40,35,30,20,20,50,0.16216216216216217,0.1111111111111111,0
14,Kakuna,Bug,Poison,205,45,25,50,25,25,35,0.10810810810810811,0.2,0
15,Beedrill,Bug,Poison,395,65,90,40,45,80,75,0.4594594594594595,0.15555555555555556,0
15,Beedrill Mega Beedrill,Bug,Poison,495,65,150,40,15,80,145,0.7837837837837838,0.15555555555555556,1
16,Pidgey,Normal,Flying,251,40,45,40,35,35,56,0.21621621621621623,0.15555555555555556,0
17,Pidgeotto,Normal,Flying,349,63,60,55,50,50,71,0.2972972972972973,0.2222222222222222,0
18,Pidgeot,Normal,Flying,479,83,80,75,70,70,101,0.40540540540540543,0.3111111111111111,0
18,Pidgeot Mega Pidgeot,Normal,Flying,579,83,80,80,135,80,121,0.40540540540540543,0.3333333333333333,1
19,Rattata,Normal,,253,30,56,35,25,35,72,0.2756756756756757,0.13333333333333333,0
19,Rattata Alolan Rattata,Dark,Normal,253,30,56,35,25,35,72,0.2756756756756757,0.13333333333333333,0
20,Raticate,Normal,,413,55,81,60,50,70,97,0.41081081081081083,0.24444444444444444,0
20,Raticate Alolan Raticate,Dark,Normal,413,75,71,70,40,80,77,0.3567567567567568,0.28888888888888886,0
21,Spearow,Normal,Flying,262,40,60,30,31,31,70,0.2972972972972973,0.1111111111111111,0
22,Fearow,Normal,Flying,442,65,90,65,61,61,100,0.4594594594594595,0.26666666666666666,1
23,Ekans,Poison,,288,35,60,44,40,54,55,0.2972972972972973,0.17333333333333334,0
24,Arbok,Poison,,448,60,95,69,65,79,80,0.4864864864864865,0.28444444444444444,1
25,Pikachu,Electric,,320,35,55,40,50,50,90,0.2702702702702703,0.15555555555555556,0
25,Pikachu Partner Pikachu,Electric,,430,45,80,50,75,60,120,0.40540540540540543,0.2,0
26,Raichu,Electric,,485,60,90,55,90,80,110,0.4594594594594595,0.2222222222222222,0
26,Raichu Alolan Raichu,Electric,Psychic,485,60,85,50,95,85,110,0.43243243243243246,0.2,0
27,Sandshrew,Ground,,300,50,75,85,20,30,40,0.3783783783783784,0.35555555555555557,0
27,Sandshrew Alolan Sandshrew,Ice,Steel,300,50,75,90,10,35,40,0.3783783783783784,0.37777777777777777,1
28,Sandslash,Ground,,450,75,100,110,45,55,65,0.5135135135135135,0.4666666666666667,1
28,Sandslash Alolan Sandslash,Ice,Steel,450,75,100,120,25,65,65,0.5135135135135135,0.5111111111111111,1
29,Nidoran♀,Poison,,275,55,47,52,40,40,41,0.22702702702702704,0.2088888888888889,0
30,Nidorina,Poison,,365,70,62,67,55,55,56,0.3081081081081081,0.27555555555555555,0
31,Nidoqueen,Poison,Ground,505,90,92,87,75,85,76,0.4702702702702703,0.36444444444444446,1
32,Nidoran♂,Poison,,273,46,57,40,40,40,50,0.2810810810810811,0.15555555555555556,0
33,Nidorino,Poison,,365,61,72,57,55,55,65,0.3621621621621622,0.2311111111111111,0
34,Nidoking,Poison,Ground,505,81,102,77,85,75,85,0.5243243243243243,0.32,1
35,Clefairy,Fairy,,323,70,45,48,60,65,35,0.21621621621621623,0.19111111111111112,0
36,Clefable,Fairy,,483,95,70,73,95,90,60,0.35135135135135137,0.3022222222222222,0
37,Vulpix,Fire,,299,38,41,40,50,65,65,0.1945945945945946,0.15555555555555556,0
37,Vulpix Alolan Vulpix,Ice,,299,38,41,40,50,65,65,0.1945945945945946,0.15555555555555556,0
38,Ninetales,Fire,,505,73,76,75,81,100,100,0.3837837837837838,0.3111111111111111,0
38,Ninetales Alolan Ninetales,Ice,Fairy,505,73,67,75,81,100,109,0.33513513513513515,0.3111111111111111,0
39,Jigglypuff,Normal,Fairy,270,115,45,20,45,25,20,0.21621621621621623,0.06666666666666667,0
40,Wigglytuff,Normal,Fairy,435,140,70,45,85,50,45,0.35135135135135137,0.17777777777777778,0
41,Zubat,Poison,Flying,245,40,45,35,30,40,55,0.21621621621621623,0.13333333333333333,0
42,Golbat,Poison,Flying,455,75,80,70,65,75,90,0.40540540540540543,0.28888888888888886,0
43,Oddish,Grass,Poison,320,45,50,55,75,65,30,0.24324324324324326,0.2222222222222222,0
44,Gloom,Grass,Poison,395,60,65,70,85,75,40,0.32432432432432434,0.28888888888888886,0
45,Vileplume,Grass,Poison,490,75,80,85,110,90,50,0.40540540540540543,0.35555555555555557,1
46,Paras,Bug,Grass,285,35,70,55,45,55,25,0.35135135135135137,0.2222222222222222,0
47,Parasect,Bug,Grass,405,60,95,80,60,80,30,0.4864864864864865,0.3333333333333333,1
48,Venonat,Bug,Poison,305,60,55,50,40,55,45,0.2702702702702703,0.2,0
49,Venomoth,Bug,Poison,450,70,65,60,90,75,90,0.32432432432432434,0.24444444444444444,0
50,Diglett,Ground,,265,10,55,25,35,45,95,0.2702702702702703,0.08888888888888889,0
50,Diglett Alolan Diglett,Ground,Steel,265,10,55,30,35,45,90,0.2702702702702703,0.1111111111111111,0
51,Dugtrio,Ground,,425,35,100,50,50,70,120,0.5135135135135135,0.2,1
51,Dugtrio Alolan Dugtrio,Ground,Steel,425,35,100,60,50,70,110,0.5135135135135135,0.24444444444444444,1
52,Meowth,Normal,,290,40,45,35,40,40,90,0.21621621621621623,0.13333333333333333,0
52,Meowth Alolan Meowth,Dark,,290,40,35,35,50,40,90,0.16216216216216217,0.13333333333333333,0
52,Meowth Galarian Meowth,Steel,,290,50,65,55,40,40,40,0.32432432432432434,0.2222222222222222,0
53,Persian,Normal,,440,65,70,60,65,65,115,0.35135135135135137,0.24444444444444444,0
53,Persian Alolan Persian,Dark,,440,65,60,60,75,65,115,0.2972972972972973,0.24444444444444444,0
54,Psyduck,Water,,320,50,52,48,65,50,55,0.25405405405405407,0.19111111111111112,0
55,Golduck,Water,,500,80,82,78,95,80,85,0.41621621621621624,0.3244444444444444,1
56,Mankey,Fighting,,305,40,80,35,35,45,70,0.40540540540540543,0.13333333333333333,0
57,Primeape,Fighting,,455,65,105,60,60,70,95,0.5405405405405406,0.24444444444444444,1
58,Growlithe,Fire,,350,55,70,45,70,50,60,0.35135135135135137,0.17777777777777778,0
59,Arcanine,Fire,,555,90,110,80,100,80,95,0.5675675675675675,0.3333333333333333,1
60,Poliwag,Water,,300,40,50,40,40,40,90,0.24324324324324326,0.15555555555555556,0
61,Poliwhirl,Water,,385,65,65,65,50,50,90,0.32432432432432434,0.26666666666666666,0
62,Poliwrath,Water,Fighting,510,90,95,95,70,90,70,0.4864864864864865,0.4,1
63,Abra,Psychic,,310,25,20,15,105,55,90,0.08108108108108109,0.044444444444444446,0
64,Kadabra,Psychic,,400,40,35,30,120,70,105,0.16216216216216217,0.1111111111111111,0
65,Alakazam,Psychic,,500,55,50,45,135,95,120,0.24324324324324326,0.17777777777777778,0
65,Alakazam Mega Alakazam,Psychic,,600,55,50,65,175,105,150,0.24324324324324326,0.26666666666666666,0
66,Machop,Fighting,,305,70,80,50,35,35,35,0.40540540540540543,0.2,0
67,Machoke,Fighting,,405,80,100,70,50,60,45,0.5135135135135135,0.28888888888888886,1
68,Machamp,Fighting,,505,90,130,80,65,85,55,0.6756756756756757,0.3333333333333333,1
69,Bellsprout,Grass,Poison,300,50,75,35,70,30,40,0.3783783783783784,0.13333333333333333,0
70,Weepinbell,Grass,Poison,390,65,90,50,85,45,55,0.4594594594594595,0.2,0
71,Victreebel,Grass,Poison,490,80,105,65,100,70,70,0.5405405405405406,0.26666666666666666,1
72,Tentacool,Water,Poison,335,40,40,35,50,100,70,0.1891891891891892,0.13333333333333333,0
73,Tentacruel,Water,Poison,515,80,70,65,80,120,100,0.35135135135135137,0.26666666666666666,0
74,Geodude,Rock,Ground,300,40,80,100,30,30,20,0.40540540540540543,0.4222222222222222,1
74,Geodude Alolan Geodude,Rock,Electric,300,40,80,100,30,30,20,0.40540540540540543,0.4222222222222222,1
75,Graveler,Rock,Ground,390,55,95,115,45,45,35,0.4864864864864865,0.4888888888888889,1
75,Graveler Alolan Graveler,Rock,Electric,390,55,95,115,45,45,35,0.4864864864864865,0.4888888888888889,1
76,Golem,Rock,Ground,495,80,120,130,55,65,45,0.6216216216216216,0.5555555555555556,1
76,Golem Alolan Golem,Rock,Electric,495,80,120,130,55,65,45,0.6216216216216216,0.5555555555555556,1
77,Ponyta,Fire,,410,50,85,55,65,65,90,0.43243243243243246,0.2222222222222222,0
77,Ponyta Galarian Ponyta,Psychic,,410,50,85,55,65,65,90,0.43243243243243246,0.2222222222222222,0
78,Rapidash,Fire,,500,65,100,70,80,80,105,0.5135135135135135,0.28888888888888886,1
78,Rapidash Galarian Rapidash,Psychic,Fairy,500,65,100,70,80,80,105,0.5135135135135135,0.28888888888888886,1
79,Slowpoke,Water,Psychic,315,90,65,65,40,40,15,0.32432432432432434,0.26666666666666666,0
79,Slowpoke Galarian Slowpoke,Psychic,,315,90,65,65,40,40,15,0.32432432432432434,0.26666666666666666,0
80,Slowbro,Water,Psychic,490,95,75,110,100,80,30,0.3783783783783784,0.4666666666666667,1
80,Slowbro Mega Slowbro,Water,Psychic,590,95,75,180,130,80,30,0.3783783783783784,0.7777777777777778,1
80,Slowbro Galarian Slowbro,Poison,Psychic,490,95,100,95,100,70,30,0.5135135135135135,0.4,1
81,Magnemite,Electric,Steel,325,25,35,70,95,55,45,0.16216216216216217,0.28888888888888886,0
82,Magneton,Electric,Steel,465,50,60,95,120,70,70,0.2972972972972973,0.4,0
83,Farfetch'd,Normal,Flying,377,52,90,55,58,62,60,0.4594594594594595,0.2222222222222222,0
83,Farfetch'd Galarian Farfetch'd,Fighting,,377,52,95,55,58,62,55,0.4864864864864865,0.2222222222222222,1
84,Doduo,Normal,Flying,310,35,85,45,35,35,75,0.43243243243243246,0.17777777777777778,0
85,Dodrio,Normal,Flying,470,60,110,70,60,60,110,0.5675675675675675,0.28888888888888886,1
86,Seel,Water,,325,65,45,55,45,70,45,0.21621621621621623,0.2222222222222222,0
87,Dewgong,Water,Ice,475,90,70,80,70,95,70,0.35135135135135137,0.3333333333333333,0
88,Grimer,Poison,,325,80,80,50,40,50,25,0.40540540540540543,0.2,0
88,Grimer Alolan Grimer,Poison,Dark,325,80,80,50,40,50,25,0.40540540540540543,0.2,0
89,Muk,Poison,,500,105,105,75,65,100,50,0.5405405405405406,0.3111111111111111,1
89,Muk Alolan Muk,Poison,Dark,500,105,105,75,65,100,50,0.5405405405405406,0.3111111111111111,1
90,Shellder,Water,,305,30,65,100,45,25,40,0.32432432432432434,0.4222222222222222,0
91,Cloyster,Water,Ice,525,50,95,180,85,45,70,0.4864864864864865,0.7777777777777778,1
92,Gastly,Ghost,Poison,310,30,35,30,100,35,80,0.16216216216216217,0.1111111111111111,0
93,Haunter,Ghost,Poison,405,45,50,45,115,55,95,0.24324324324324326,0.17777777777777778,0
94,Gengar,Ghost,Poison,500,60,65,60,130,75,110,0.32432432432432434,0.24444444444444444,0
94,Gengar Mega Gengar,Ghost,Poison,600,60,65,80,170,95,130,0.32432432432432434,0.3333333333333333,0
95,Onix,Rock,Ground,385,35,45,160,30,45,70,0.21621621621621623,0.6888888888888889,1
96,Drowzee,Psychic,,328,60,48,45,43,90,42,0.23243243243243245,0.17777777777777778,0
97,Hypno,Psychic,,483,85,73,70,73,115,67,0.3675675675675676,0.28888888888888886,0
98,Krabby,Water,,325,30,105,90,25,25,50,0.5405405405405406,0.37777777777777777,1
99,Kingler,Water,,475,55,130,115,50,50,75,0.6756756756756757,0.4888888888888889,1
100,Voltorb,Electric,,330,40,30,50,55,55,100,0.13513513513513514,0.2,0
101,Electrode,Electric,,490,60,50,70,80,80,150,0.24324324324324326,0.28888888888888886,0
102,Exeggcute,Grass,Psychic,325,60,40,80,60,45,40,0.1891891891891892,0.3333333333333333,0
103,Exeggutor,Grass,Psychic,530,95,95,85,125,75,55,0.4864864864864865,0.35555555555555557,1
103,Exeggutor Alolan Exeggutor,Grass,Dragon,530,95,105,85,125,75,45,0.5405405405405406,0.35555555555555557,1
104,Cubone,Ground,,320,50,50,95,40,50,35,0.24324324324324326,0.4,0
105,Marowak,Ground,,425,60,80,110,50,80,45,0.40540540540540543,0.4666666666666667,1
105,Marowak Alolan Marowak,Fire,Ghost,425,60,80,110,50,80,45,0.40540540540540543,0.4666666666666667,1
106,Hitmonlee,Fighting,,455,50,120,53,35,110,87,0.6216216216216216,0.21333333333333335,1
107,Hitmonchan,Fighting,,455,50,105,79,35,110,76,0.5405405405405406,0.3288888888888889,1
108,Lickitung,Normal,,385,90,55,75,60,75,30,0.2702702702702703,0.3111111111111111,0
109,Koffing,Poison,,340,40,65,95,60,45,35,0.32432432432432434,0.4,0
110,Weezing,Poison,,490,65,90,120,85,70,60,0.4594594594594595,0.5111111111111111,1
110,Weezing Galarian Weezing,Poison,Fairy,490,65,90,120,85,70,60,0.4594594594594595,0.5111111111111111,1
111,Rhyhorn,Ground,Rock,345,80,85,95,30,30,25,0.43243243243243246,0.4,1
112,Rhydon,Ground,Rock,485,105,130,120,45,45,40,0.6756756756756757,0.5111111111111111,1
113,Chansey,Normal,,450,250,5,5,35,105,50,0.0,0.0,0
114,Tangela,Grass,,435,65,55,115,100,40,60,0.2702702702702703,0.4888888888888889,0
115,Kangaskhan,Normal,,490,105,95,80,40,80,90,0.4864864864864865,0.3333333333333333,1
115,Kangaskhan Mega Kangaskhan,Normal,,590,105,125,100,60,100,100,0.6486486486486487,0.4222222222222222,1
116,Horsea,Water,,295,30,40,70,70,25,60,0.1891891891891892,0.28888888888888886,0
117,Seadra,Water,,440,55,65,95,95,45,85,0.32432432432432434,0.4,0
118,Goldeen,Water,,320,45,67,60,35,50,63,0.33513513513513515,0.24444444444444444,0
119,Seaking,Water,,450,80,92,65,65,80,68,0.4702702702702703,0.26666666666666666,1
120,Staryu,Water,,340,30,45,55,70,55,85,0.21621621621621623,0.2222222222222222,0
121,Starmie,Water,Psychic,520,60,75,85,100,85,115,0.3783783783783784,0.35555555555555557,0
122,Mr. Mime,Psychic,Fairy,460,40,45,65,100,120,90,0.21621621621621623,0.26666666666666666,0
122,Mr. Mime Galarian Mr. Mime,Psychic,Ice,460,50,65,65,90,90,100,0.32432432432432434,0.26666666666666666,0
123,Scyther,Bug,Flying,500,70,110,80,55,80,105,0.5675675675675675,0.3333333333333333,1
124,Jynx,Ice,Psychic,455,65,50,35,115,95,95,0.24324324324324326,0.13333333333333333,0
125,Electabuzz,Electric,,490,65,83,57,95,85,105,0.42162162162162165,0.2311111111111111,0
126,Magmar,Fire,,495,65,95,57,100,85,93,0.4864864864864865,0.2311111111111111,1
127,Pinsir,Bug,,500,65,125,100,55,70,85,0.6486486486486487,0.4222222222222222,1
127,Pinsir Mega Pinsir,Bug,Flying,600,65,155,120,65,90,105,0.8108108108108109,0.5111111111111111,1
128,Tauros,Normal,,490,75,100,95,40,70,110,0.5135135135135135,0.4,1
129,Magikarp,Water,,200,20,10,55,15,20,80,0.02702702702702703,0.2222222222222222,0
130,Gyarados,Water,Flying,540,95,125,79,60,100,81,0.6486486486486487,0.3288888888888889,1
130,Gyarados Mega Gyarados,Water,Dark,640,95,155,109,70,130,81,0.8108108108108109,0.4622222222222222,1
131,Lapras,Water,Ice,535,130,85,80,85,95,60,0.43243243243243246,0.3333333333333333,1
132,Ditto,Normal,,288,48,48,48,48,48,48,0.23243243243243245,0.19111111111111112,0
133,Eevee,Normal,,325,55,55,50,45,65,55,0.2702702702702703,0.2,0
133,Eevee Partner Eevee,Normal,,435,65,75,70,65,85,75,0.3783783783783784,0.28888888888888886,0
134,Vaporeon,Water,,525,130,65,60,110,95,65,0.32432432432432434,0.24444444444444444,0
135,Jolteon,Electric,,525,65,65,60,110,95,130,0.32432432432432434,0.24444444444444444,0
136,Flareon,Fire,,525,65,130,60,95,110,65,0.6756756756756757,0.24444444444444444,1
137,Porygon,Normal,,395,65,60,70,85,75,40,0.2972972972972973,0.28888888888888886,0
138,Omanyte,Rock,Water,355,35,40,100,90,55,35,0.1891891891891892,0.4222222222222222,0
139,Omastar,Rock,Water,495,70,60,125,115,70,55,0.2972972972972973,0.5333333333333333,1
140,Kabuto,Rock,Water,355,30,80,90,55,45,55,0.40540540540540543,0.37777777777777777,1
141,Kabutops,Rock,Water,495,60,115,105,65,70,80,0.5945945945945946,0.4444444444444444,1
142,Aerodactyl,Rock,Flying,515,80,105,65,60,75,130,0.5405405405405406,0.26666666666666666,1
142,Aerodactyl Mega Aerodactyl,Rock,Flying,615,80,135,85,70,95,150,0.7027027027027027,0.35555555555555557,1
143,Snorlax,Normal,,540,160,110,65,65,110,30,0.5675675675675675,0.26666666666666666,1
144,Articuno,Ice,Flying,580,90,85,100,95,125,85,0.43243243243243246,0.4222222222222222,1
145,Zapdos,Electric,Flying,580,90,90,85,125,90,100,0.4594594594594595,0.35555555555555557,1
146,Moltres,Fire,Flying,580,90,100,90,125,85,90,0.5135135135135135,0.37777777777777777,1
147,Dratini,Dragon,,300,41,64,45,50,50,50,0.31891891891891894,0.17777777777777778,0
148,Dragonair,Dragon,,420,61,84,65,70,70,70,0.42702702702702705,0.26666666666666666,0
149,Dragonite,Dragon,Flying,600,91,134,95,100,100,80,0.6972972972972973,0.4,1
150,Mewtwo,Psychic,,680,106,110,90,154,90,130,0.5675675675675675,0.37777777777777777,1
150,Mewtwo Mega Mewtwo X,Psychic,Fighting,780,106,190,100,154,100,130,1.0,0.4222222222222222,1
150,Mewtwo Mega Mewtwo Y,Psychic,,780,106,150,70,194,120,140,0.7837837837837838,0.28888888888888886,1
151,Mew,Psychic,,600,100,100,100,100,100,100,0.5135135135135135,0.4222222222222222,1
152,Chikorita,Grass,,318,45,49,65,49,65,45,0.23783783783783785,0.26666666666666666,0
153,Bayleef,Grass,,405,60,62,80,63,80,60,0.3081081081081081,0.3333333333333333,0
154,Meganium,Grass,,525,80,82,100,83,100,80,0.41621621621621624,0.4222222222222222,1
155,Cyndaquil,Fire,,309,39,52,43,60,50,65,0.25405405405405407,0.1688888888888889,0
156,Quilava,Fire,,405,58,64,58,80,65,80,0.31891891891891894,0.23555555555555555,0
157,Typhlosion,Fire,,534,78,84,78,109,85,100,0.42702702702702705,0.3244444444444444,1
158,Totodile,Water,,314,50,65,64,44,48,43,0.32432432432432434,0.26222222222222225,0
159,Croconaw,Water,,405,65,80,80,59,63,58,0.40540540540540543,0.3333333333333333,1
160,Feraligatr,Water,,530,85,105,100,79,83,78,0.5405405405405406,0.4222222222222222,1
161,Sentret,Normal,,215,35,46,34,35,45,20,0.22162162162162163,0.1288888888888889,0
162,Furret,Normal,,415,85,76,64,45,55,90,0.3837837837837838,0.26222222222222225,0
163,Hoothoot,Normal,Flying,262,60,30,30,36,56,50,0.13513513513513514,0.1111111111111111,0
164,Noctowl,Normal,Flying,452,100,50,50,86,96,70,0.24324324324324326,0.2,0
165,Ledyba,Bug,Flying,265,40,20,30,40,80,55,0.08108108108108109,0.1111111111111111,0
166,Ledian,Bug,Flying,390,55,35,50,55,110,85,0.16216216216216217,0.2,0
167,Spinarak,Bug,Poison,250,40,60,40,40,40,30,0.2972972972972973,0.15555555555555556,0
168,Ariados,Bug,Poison,400,70,90,70,60,70,40,0.4594594594594595,0.28888888888888886,1
169,Crobat,Poison,Flying,535,85,90,80,70,80,130,0.4594594594594595,0.3333333333333333,1
170,Chinchou,Water,Electric,330,75,38,38,56,56,67,0.1783783783783784,0.14666666666666667,0
171,Lanturn,Water,Electric,460,125,58,58,76,76,67,0.2864864864864865,0.23555555555555555,0
172,Pichu,Electric,,205,20,40,15,35,35,60,0.1891891891891892,0.044444444444444446,0
173,Cleffa,Fairy,,218,50,25,28,45,55,15,0.10810810810810811,0.10222222222222223,0
174,Igglybuff,Normal,Fairy,210,90,30,15,40,20,15,0.13513513513513514,0.044444444444444446,0
175,Togepi,Fairy,,245,35,20,65,40,65,20,0.08108108108108109,0.26666666666666666,0
176,Togetic,Fairy,Flying,405,55,40,85,80,105,40,0.1891891891891892,0.35555555555555557,0
177,Natu,Psychic,Flying,320,40,50,45,70,45,70,0.24324324324324326,0.17777777777777778,0
178,Xatu,Psychic,Flying,470,65,75,70,95,70,95,0.3783783783783784,0.28888888888888886,0
179,Mareep,Electric,,280,55,40,40,65,45,35,0.1891891891891892,0.15555555555555556,0
180,Flaaffy,Electric,,365,70,55,55,80,60,45,0.2702702702702703,0.2222222222222222,0
181,Ampharos,Electric,,510,90,75,85,115,90,55,0.3783783783783784,0.35555555555555557,0
181,Ampharos Mega Ampharos,Electric,Dragon,610,90,95,105,165,110,45,0.4864864864864865,0.4444444444444444,1
182,Bellossom,Grass,,490,75,80,95,90,100,50,0.40540540540540543,0.4,1
183,Marill,Water,Fairy,250,70,20,50,20,50,40,0.08108108108108109,0.2,0
184,Azumarill,Water,Fairy,420,100,50,80,60,80,50,0.24324324324324326,0.3333333333333333,0
185,Sudowoodo,Rock,,410,70,100,115,30,65,30,0.5135135135135135,0.4888888888888889,1
186,Politoed,Water,,500,90,75,75,90,100,70,0.3783783783783784,0.3111111111111111,0
187,Hoppip,Grass,Flying,250,35,35,40,35,55,50,0.16216216216216217,0.15555555555555556,0
188,Skiploom,Grass,Flying,340,55,45,50,45,65,80,0.21621621621621623,0.2,0
189,Jumpluff,Grass,Flying,460,75,55,70,55,95,110,0.2702702702702703,0.28888888888888886,0
190,Aipom,Normal,,360,55,70,55,40,55,85,0.35135135135135137,0.2222222222222222,0
191,Sunkern,Grass,,180,30,30,30,30,30,30,0.13513513513513514,0.1111111111111111,0
192,Sunflora,Grass,,425,75,75,55,105,85,30,0.3783783783783784,0.2222222222222222,0
193,Yanma,Bug,Flying,390,65,65,45,75,45,95,0.32432432432432434,0.17777777777777778,0
194,Wooper,Water,Ground,210,55,45,45,25,25,15,0.21621621621621623,0.17777777777777778,0
195,Quagsire,Water,Ground,430,95,85,85,65,65,35,0.43243243243243246,0.35555555555555557,1
196,Espeon,Psychic,,525,65,65,60,130,95,110,0.32432432432432434,0.24444444444444444,0
197,Umbreon,Dark,,525,95,65,110,60,130,65,0.32432432432432434,0.4666666666666667,1
198,Murkrow,Dark,Flying,405,60,85,42,85,42,91,0.43243243243243246,0.16444444444444445,0
199,Slowking,Water,Psychic,490,95,75,80,100,110,30,0.3783783783783784,0.3333333333333333,0
200,Misdreavus,Ghost,,435,60,60,60,85,85,85,0.2972972972972973,0.24444444444444444,0
201,Unown,Psychic,,336,48,72,48,72,48,48,0.3621621621621622,0.19111111111111112,0
202,Wobbuffet,Psychic,,405,190,33,58,33,58,33,0.15135135135135136,0.23555555555555555,0
203,Girafarig,Normal,Psychic,455,70,80,65,90,65,85,0.40540540540540543,0.26666666666666666,0
204,Pineco,Bug,,290,50,65,90,35,35,15,0.32432432432432434,0.37777777777777777,0
205,Forretress,Bug,Steel,465,75,90,140,60,60,40,0.4594594594594595,0.6,1
206,Dunsparce,Normal,,415,100,70,70,65,65,45,0.35135135135135137,0.28888888888888886,0
207,Gligar,Ground,Flying,430,65,75,105,35,65,85,0.3783783783783784,0.4444444444444444,1
208,Steelix,Steel,Ground,510,75,85,200,55,65,30,0.43243243243243246,0.8666666666666667,1
208,Steelix Mega Steelix,Steel,Ground,610,75,125,230,55,95,30,0.6486486486486487,1.0,1
209,Snubbull,Fairy,,300,60,80,50,40,40,30,0.40540540540540543,0.2,0
210,Granbull,Fairy,,450,90,120,75,60,60,45,0.6216216216216216,0.3111111111111111,1
211,Qwilfish,Water,Poison,440,65,95,85,55,55,85,0.4864864864864865,0.35555555555555557,1
212,Scizor,Bug,Steel,500,70,130,100,55,80,65,0.6756756756756757,0.4222222222222222,1
212,Scizor Mega Scizor,Bug,Steel,600,70,150,140,65,100,75,0.7837837837837838,0.6,1
213,Shuckle,Bug,Rock,505,20,10,230,10,230,5,0.02702702702702703,1.0,1
214,Heracross,Bug,Fighting,500,80,125,75,40,95,85,0.6486486486486487,0.3111111111111111,1
214,Heracross Mega Heracross,Bug,Fighting,600,80,185,115,40,105,75,0.972972972972973,0.4888888888888889,1
215,Sneasel,Dark,Ice,430,55,95,55,35,75,115,0.4864864864864865,0.2222222222222222,1
216,Teddiursa,Normal,,330,60,80,50,50,50,40,0.40540540540540543,0.2,0
217,Ursaring,Normal,,500,90,130,75,75,75,55,0.6756756756756757,0.3111111111111111,1
218,Slugma,Fire,,250,40,40,40,70,40,20,0.1891891891891892,0.15555555555555556,0
219,Magcargo,Fire,Rock,430,60,50,120,90,80,30,0.24324324324324326,0.5111111111111111,0
220,Swinub,Ice,Ground,250,50,50,40,30,30,50,0.24324324324324326,0.15555555555555556,0
221,Piloswine,Ice,Ground,450,100,100,80,60,60,50,0.5135135135135135,0.3333333333333333,1
222,Corsola,Water,Rock,410,65,55,95,65,95,35,0.2702702702702703,0.4,0
222,Corsola Galarian Corsola,Ghost,,410,60,55,100,65,100,30,0.2702702702702703,0.4222222222222222,0
223,Remoraid,Water,,300,35,65,35,65,35,65,0.32432432432432434,0.13333333333333333,0
224,Octillery,Water,,480,75,105,75,105,75,45,0.5405405405405406,0.3111111111111111,1
225,Delibird,Ice,Flying,330,45,55,45,65,45,75,0.2702702702702703,0.17777777777777778,0
226,Mantine,Water,Flying,485,85,40,70,80,140,70,0.1891891891891892,0.28888888888888886,0
227,Skarmory,Steel,Flying,465,65,80,140,40,70,70,0.40540540540540543,0.6,1
228,Houndour,Dark,Fire,330,45,60,30,80,50,65,0.2972972972972973,0.1111111111111111,0
229,Houndoom,Dark,Fire,500,75,90,50,110,80,95,0.4594594594594595,0.2,0
229,Houndoom Mega Houndoom,Dark,Fire,600,75,90,90,140,90,115,0.4594594594594595,0.37777777777777777,1
230,Kingdra,Water,Dragon,540,75,95,95,95,95,85,0.4864864864864865,0.4,1
231,Phanpy,Ground,,330,90,60,60,40,40,40,0.2972972972972973,0.24444444444444444,0
232,Donphan,Ground,,500,90,120,120,60,60,50,0.6216216216216216,0.5111111111111111,1
233,Porygon2,Normal,,515,85,80,90,105,95,60,0.40540540540540543,0.37777777777777777,1
234,Stantler,Normal,,465,73,95,62,85,65,85,0.4864864864864865,0.25333333333333335,1
235,Smeargle,Normal,,250,55,20,35,20,45,75,0.08108108108108109,0.13333333333333333,0
236,Tyrogue,Fighting,,210,35,35,35,35,35,35,0.16216216216216217,0.13333333333333333,0
237,Hitmontop,Fighting,,455,50,95,95,35,110,70,0.4864864864864865,0.4,1
238,Smoochum,Ice,Psychic,305,45,30,15,85,65,65,0.13513513513513514,0.044444444444444446,0
239,Elekid,Electric,,360,45,63,37,65,55,95,0.31351351351351353,0.14222222222222222,0
240,Magby,Fire,,365,45,75,37,70,55,83,0.3783783783783784,0.14222222222222222,0
241,Miltank,Normal,,490,95,80,105,40,70,100,0.40540540540540543,0.4444444444444444,1
242,Blissey,Normal,,540,255,10,10,75,135,55,0.02702702702702703,0.022222222222222223,0
243,Raikou,Electric,,580,90,85,75,115,100,115,0.43243243243243246,0.3111111111111111,1
244,Entei,Fire,,580,115,115,85,90,75,100,0.5945945945945946,0.35555555555555557,1
245,Suicune,Water,,580,100,75,115,90,115,85,0.3783783783783784,0.4888888888888889,1
246,Larvitar,Rock,Ground,300,50,64,50,45,50,41,0.31891891891891894,0.2,0
247,Pupitar,Rock,Ground,410,70,84,70,65,70,51,0.42702702702702705,0.28888888888888886,0
248,Tyranitar,Rock,Dark,600,100,134,110,95,100,61,0.6972972972972973,0.4666666666666667,1
248,Tyranitar Mega Tyranitar,Rock,Dark,700,100,164,150,95,120,71,0.8594594594594595,0.6444444444444445,1
249,Lugia,Psychic,Flying,680,106,90,130,90,154,110,0.4594594594594595,0.5555555555555556,1
250,Ho-oh,Fire,Flying,680,106,130,90,110,154,90,0.6756756756756757,0.37777777777777777,1
251,Celebi,Psychic,Grass,600,100,100,100,100,100,100,0.5135135135135135,0.4222222222222222,1
252,Treecko,Grass,,310,40,45,35,65,55,70,0.21621621621621623,0.13333333333333333,0
253,Grovyle,Grass,,405,50,65,45,85,65,95,0.32432432432432434,0.17777777777777778,0
254,Sceptile,Grass,,530,70,85,65,105,85,120,0.43243243243243246,0.26666666666666666,0
254,Sceptile Mega Sceptile,Grass,Dragon,630,70,110,75,145,85,145,0.5675675675675675,0.3111111111111111,1
255,Torchic,Fire,,310,45,60,40,70,50,45,0.2972972972972973,0.15555555555555556,0
256,Combusken,Fire,Fighting,405,60,85,60,85,60,55,0.43243243243243246,0.24444444444444444,0
257,Blaziken,Fire,Fighting,530,80,120,70,110,70,80,0.6216216216216216,0.28888888888888886,1
257,Blaziken Mega Blaziken,Fire,Fighting,630,80,160,80,130,80,100,0.8378378378378378,0.3333333333333333,1
258,Mudkip,Water,,310,50,70,50,50,50,40,0.35135135135135137,0.2,0
259,Marshtomp,Water,Ground,405,70,85,70,60,70,50,0.43243243243243246,0.28888888888888886,1
260,Swampert,Water,Ground,535,100,110,90,85,90,60,0.5675675675675675,0.37777777777777777,1
260,Swampert Mega Swampert,Water,Ground,635,100,150,110,95,110,70,0.7837837837837838,0.4666666666666667,1
261,Poochyena,Dark,,220,35,55,35,30,30,35,0.2702702702702703,0.13333333333333333,0
262,Mightyena,Dark,,420,70,90,70,60,60,70,0.4594594594594595,0.28888888888888886,1
263,Zigzagoon,Normal,,240,38,30,41,30,41,60,0.13513513513513514,0.16,0
263,Zigzagoon Galarian Zigzagoon,Dark,Normal,240,38,30,41,30,41,60,0.13513513513513514,0.16,0
264,Linoone,Normal,,420,78,70,61,50,61,100,0.35135135135135137,0.24888888888888888,0
264,Linoone Galarian Linoone,Dark,Normal,420,78,70,61,50,61,100,0.35135135135135137,0.24888888888888888,0
265,Wurmple,Bug,,195,45,45,35,20,30,20,0.21621621621621623,0.13333333333333333,0
266,Silcoon,Bug,,205,50,35,55,25,25,15,0.16216216216216217,0.2222222222222222,0
267,Beautifly,Bug,Flying,395,60,70,50,100,50,65,0.35135135135135137,0.2,0
268,Cascoon,Bug,,205,50,35,55,25,25,15,0.16216216216216217,0.2222222222222222,0
269,Dustox,Bug,Poison,385,60,50,70,50,90,65,0.24324324324324326,0.28888888888888886,0
270,Lotad,Water,Grass,220,40,30,30,40,50,30,0.13513513513513514,0.1111111111111111,0
271,Lombre,Water,Grass,340,60,50,50,60,70,50,0.24324324324324326,0.2,0
272,Ludicolo,Water,Grass,480,80,70,70,90,100,70,0.35135135135135137,0.28888888888888886,0
273,Seedot,Grass,,220,40,40,50,30,30,30,0.1891891891891892,0.2,0
274,Nuzleaf,Grass,Dark,340,70,70,40,60,40,60,0.35135135135135137,0.15555555555555556,0
275,Shiftry,Grass,Dark,480,90,100,60,90,60,80,0.5135135135135135,0.24444444444444444,1
276,Taillow,Normal,Flying,270,40,55,30,30,30,85,0.2702702702702703,0.1111111111111111,0
277,Swellow,Normal,Flying,455,60,85,60,75,50,125,0.43243243243243246,0.24444444444444444,0
278,Wingull,Water,Flying,270,40,30,30,55,30,85,0.13513513513513514,0.1111111111111111,0
279,Pelipper,Water,Flying,440,60,50,100,95,70,65,0.24324324324324326,0.4222222222222222,0
280,Ralts,Psychic,Fairy,198,28,25,25,45,35,40,0.10810810810810811,0.08888888888888889,0
281,Kirlia,Psychic,Fairy,278,38,35,35,65,55,50,0.16216216216216217,0.13333333333333333,0
282,Gardevoir,Psychic,Fairy,518,68,65,65,125,115,80,0.32432432432432434,0.26666666666666666,0
282,Gardevoir Mega Gardevoir,Psychic,Fairy,618,68,85,65,165,135,100,0.43243243243243246,0.26666666666666666,0
283,Surskit,Bug,Water,269,40,30,32,50,52,65,0.13513513513513514,0.12,0
284,Masquerain,Bug,Flying,454,70,60,62,100,82,80,0.2972972972972973,0.25333333333333335,0
285,Shroomish,Grass,,295,60,40,60,40,60,35,0.1891891891891892,0.24444444444444444,0
286,Breloom,Grass,Fighting,460,60,130,80,60,60,70,0.6756756756756757,0.3333333333333333,1
287,Slakoth,Normal,,280,60,60,60,35,35,30,0.2972972972972973,0.24444444444444444,0
288,Vigoroth,Normal,,440,80,80,80,55,55,90,0.40540540540540543,0.3333333333333333,1
289,Slaking,Normal,,670,150,160,100,95,65,100,0.8378378378378378,0.4222222222222222,1
290,Nincada,Bug,Ground,266,31,45,90,30,30,40,0.21621621621621623,0.37777777777777777,0
291,Ninjask,Bug,Flying,456,61,90,45,50,50,160,0.4594594594594595,0.17777777777777778,0
292,Shedinja,Bug,Ghost,236,1,90,45,30,30,40,0.4594594594594595,0.17777777777777778,0
293,Whismur,Normal,,240,64,51,23,51,23,28,0.24864864864864866,0.08,0
294,Loudred,Normal,,360,84,71,43,71,43,48,0.3567567567567568,0.1688888888888889,0
295,Exploud,Normal,,490,104,91,63,91,73,68,0.4648648648648649,0.2577777777777778,1
296,Makuhita,Fighting,,237,72,60,30,20,30,25,0.2972972972972973,0.1111111111111111,0
297,Hariyama,Fighting,,474,144,120,60,40,60,50,0.6216216216216216,0.24444444444444444,1
298,Azurill,Normal,Fairy,190,50,20,40,20,40,20,0.08108108108108109,0.15555555555555556,0
299,Nosepass,Rock,,375,30,45,135,45,90,30,0.21621621621621623,0.5777777777777777,0
300,Skitty,Normal,,260,50,45,45,35,35,50,0.21621621621621623,0.17777777777777778,0
301,Delcatty,Normal,,400,70,65,65,55,55,90,0.32432432432432434,0.26666666666666666,0
302,Sableye,Dark,Ghost,380,50,75,75,65,65,50,0.3783783783783784,0.3111111111111111,0
302,Sableye Mega Sableye,Dark,Ghost,480,50,85,125,85,115,20,0.43243243243243246,0.5333333333333333,1
303,Mawile,Steel,Fairy,380,50,85,85,55,55,50,0.43243243243243246,0.35555555555555557,1
303,Mawile Mega Mawile,Steel,Fairy,480,50,105,125,55,95,50,0.5405405405405406,0.5333333333333333,1
304,Aron,Steel,Rock,330,50,70,100,40,40,30,0.35135135135135137,0.4222222222222222,1
305,Lairon,Steel,Rock,430,60,90,140,50,50,40,0.4594594594594595,0.6,1
306,Aggron,Steel,Rock,530,70,110,180,60,60,50,0.5675675675675675,0.7777777777777778,1
306,Aggron Mega Aggron,Steel,,630,70,140,230,60,80,50,0.7297297297297297,1.0,1
307,Meditite,Fighting,Psychic,280,30,40,55,40,55,60,0.1891891891891892,0.2222222222222222,0
308,Medicham,Fighting,Psychic,410,60,60,75,60,75,80,0.2972972972972973,0.3111111111111111,0
308,Medicham Mega Medicham,Fighting,Psychic,510,60,100,85,80,85,100,0.5135135135135135,0.35555555555555557,1
309,Electrike,Electric,,295,40,45,40,65,40,65,0.21621621621621623,0.15555555555555556,0
310,Manectric,Electric,,475,70,75,60,105,60,105,0.3783783783783784,0.24444444444444444,0
310,Manectric Mega Manectric,Electric,,575,70,75,80,135,80,135,0.3783783783783784,0.3333333333333333,0
311,Plusle,Electric,,405,60,50,40,85,75,95,0.24324324324324326,0.15555555555555556,0
312,Minun,Electric,,405,60,40,50,75,85,95,0.1891891891891892,0.2,0
313,Volbeat,Bug,,430,65,73,75,47,85,85,0.3675675675675676,0.3111111111111111,0
314,Illumise,Bug,,430,65,47,75,73,85,85,0.22702702702702704,0.3111111111111111,0
315,Roselia,Grass,Poison,400,50,60,45,100,80,65,0.2972972972972973,0.17777777777777778,0
316,Gulpin,Poison,,302,70,43,53,43,53,40,0.20540540540540542,0.21333333333333335,0
317,Swalot,Poison,,467,100,73,83,73,83,55,0.3675675675675676,0.3466666666666667,0
318,Carvanha,Water,Dark,305,45,90,20,65,20,65,0.4594594594594595,0.06666666666666667,0
319,Sharpedo,Water,Dark,460,70,120,40,95,40,95,0.6216216216216216,0.15555555555555556,1
319,Sharpedo Mega Sharpedo,Water,Dark,560,70,140,70,110,65,105,0.7297297297297297,0.28888888888888886,1
320,Wailmer,Water,,400,130,70,35,70,35,60,0.35135135135135137,0.13333333333333333,0
321,Wailord,Water,,500,170,90,45,90,45,60,0.4594594594594595,0.17777777777777778,0
322,Numel,Fire,Ground,305,60,60,40,65,45,35,0.2972972972972973,0.15555555555555556,0
323,Camerupt,Fire,Ground,460,70,100,70,105,75,40,0.5135135135135135,0.28888888888888886,1
323,Camerupt Mega Camerupt,Fire,Ground,560,70,120,100,145,105,20,0.6216216216216216,0.4222222222222222,1
324,Torkoal,Fire,,470,70,85,140,85,70,20,0.43243243243243246,0.6,1
325,Spoink,Psychic,,330,60,25,35,70,80,60,0.10810810810810811,0.13333333333333333,0
326,Grumpig,Psychic,,470,80,45,65,90,110,80,0.21621621621621623,0.26666666666666666,0
327,Spinda,Normal,,360,60,60,60,60,60,60,0.2972972972972973,0.24444444444444444,0
328,Trapinch,Ground,,290,45,100,45,45,45,10,0.5135135135135135,0.17777777777777778,1
329,Vibrava,Ground,Dragon,340,50,70,50,50,50,70,0.35135135135135137,0.2,0
330,Flygon,Ground,Dragon,520,80,100,80,80,80,100,0.5135135135135135,0.3333333333333333,1
331,Cacnea,Grass,,335,50,85,40,85,40,35,0.43243243243243246,0.15555555555555556,0
332,Cacturne,Grass,Dark,475,70,115,60,115,60,55,0.5945945945945946,0.24444444444444444,1
333,Swablu,Normal,Flying,310,45,40,60,40,75,50,0.1891891891891892,0.24444444444444444,0
334,Altaria,Dragon,Flying,490,75,70,90,70,105,80,0.35135135135135137,0.37777777777777777,0
334,Altaria Mega Altaria,Dragon,Fairy,590,75,110,110,110,105,80,0.5675675675675675,0.4666666666666667,1
335,Zangoose,Normal,,458,73,115,60,60,60,90,0.5945945945945946,0.24444444444444444,1
336,Seviper,Poison,,458,73,100,60,100,60,65,0.5135135135135135,0.24444444444444444,1
337,Lunatone,Rock,Psychic,460,90,55,65,95,85,70,0.2702702702702703,0.26666666666666666,0
338,Solrock,Rock,Psychic,460,90,95,85,55,65,70,0.4864864864864865,0.35555555555555557,1
339,Barboach,Water,Ground,288,50,48,43,46,41,60,0.23243243243243245,0.1688888888888889,0
340,Whiscash,Water,Ground,468,110,78,73,76,71,60,0.3945945945945946,0.3022222222222222,0
341,Corphish,Water,,308,43,80,65,50,35,35,0.40540540540540543,0.26666666666666666,0
342,Crawdaunt,Water,Dark,468,63,120,85,90,55,55,0.6216216216216216,0.35555555555555557,1
343,Baltoy,Ground,Psychic,300,40,40,55,40,70,55,0.1891891891891892,0.2222222222222222,0
344,Claydol,Ground,Psychic,500,60,70,105,70,120,75,0.35135135135135137,0.4444444444444444,1
345,Lileep,Rock,Grass,355,66,41,77,61,87,23,0.1945945945945946,0.32,0
346,Cradily,Rock,Grass,495,86,81,97,81,107,43,0.41081081081081083,0.4088888888888889,1
347,Anorith,Rock,Bug,355,45,95,50,40,50,75,0.4864864864864865,0.2,0
348,Armaldo,Rock,Bug,495,75,125,100,70,80,45,0.6486486486486487,0.4222222222222222,1
349,Feebas,Water,,200,20,15,20,10,55,80,0.05405405405405406,0.06666666666666667,0
350,Milotic,Water,,540,95,60,79,100,125,81,0.2972972972972973,0.3288888888888889,0
351,Castform,Normal,,420,70,70,70,70,70,70,0.35135135135135137,0.28888888888888886,0
351,Castform Sunny Form,Fire,,420,70,70,70,70,70,70,0.35135135135135137,0.28888888888888886,0
351,Castform Rainy Form,Water,,420,70,70,70,70,70,70,0.35135135135135137,0.28888888888888886,0
351,Castform Snowy Form,Ice,,420,70,70,70,70,70,70,0.35135135135135137,0.28888888888888886,0
352,Kecleon,Normal,,440,60,90,70,60,120,40,0.4594594594594595,0.28888888888888886,1
353,Shuppet,Ghost,,295,44,75,35,63,33,45,0.3783783783783784,0.13333333333333333,0
354,Banette,Ghost,,455,64,115,65,83,63,65,0.5945945945945946,0.26666666666666666,1
354,Banette Mega Banette,Ghost,,555,64,165,75,93,83,75,0.8648648648648649,0.3111111111111111,1
355,Duskull,Ghost,,295,20,40,90,30,90,25,0.1891891891891892,0.37777777777777777,0
356,Dusclops,Ghost,,455,40,70,130,60,130,25,0.35135135135135137,0.5555555555555556,1
357,Tropius,Grass,Flying,460,99,68,83,72,87,51,0.34054054054054056,0.3466666666666667,0
358,Chimecho,Psychic,,455,75,50,80,95,90,65,0.24324324324324326,0.3333333333333333,0
359,Absol,Dark,,465,65,130,60,75,60,75,0.6756756756756757,0.24444444444444444,1
359,Absol Mega Absol,Dark,,565,65,150,60,115,60,115,0.7837837837837838,0.24444444444444444,1
360,Wynaut,Psychic,,260,95,23,48,23,48,23,0.0972972972972973,0.19111111111111112,0
361,Snorunt,Ice,,300,50,50,50,50,50,50,0.24324324324324326,0.2,0
362,Glalie,Ice,,480,80,80,80,80,80,80,0.40540540540540543,0.3333333333333333,1
362,Glalie Mega Glalie,Ice,,580,80,120,80,120,80,100,0.6216216216216216,0.3333333333333333,1
363,Spheal,Ice,Water,290,70,40,50,55,50,25,0.1891891891891892,0.2,0
364,Sealeo,Ice,Water,410,90,60,70,75,70,45,0.2972972972972973,0.28888888888888886,0
365,Walrein,Ice,Water,530,110,80,90,95,90,65,0.40540540540540543,0.37777777777777777,1
366,Clamperl,Water,,345,35,64,85,74,55,32,0.31891891891891894,0.35555555555555557,0
367,Huntail,Water,,485,55,104,105,94,75,52,0.5351351351351351,0.4444444444444444,1
368,Gorebyss,Water,,485,55,84,105,114,75,52,0.42702702702702705,0.4444444444444444,1
369,Relicanth,Water,Rock,485,100,90,130,45,65,55,0.4594594594594595,0.5555555555555556,1
370,Luvdisc,Water,,330,43,30,55,40,65,97,0.13513513513513514,0.2222222222222222,0
371,Bagon,Dragon,,300,45,75,60,40,30,50,0.3783783783783784,0.24444444444444444,0
372,Shelgon,Dragon,,420,65,95,100,60,50,50,0.4864864864864865,0.4222222222222222,1
373,Salamence,Dragon,Flying,600,95,135,80,110,80,100,0.7027027027027027,0.3333333333333333,1
373,Salamence Mega Salamence,Dragon,Flying,700,95,145,130,120,90,120,0.7567567567567568,0.5555555555555556,1
374,Beldum,Steel,Psychic,300,40,55,80,35,60,30,0.2702702702702703,0.3333333333333333,0
375,Metang,Steel,Psychic,420,60,75,100,55,80,50,0.3783783783783784,0.4222222222222222,1
376,Metagross,Steel,Psychic,600,80,135,130,95,90,70,0.7027027027027027,0.5555555555555556,1
376,Metagross Mega Metagross,Steel,Psychic,700,80,145,150,105,110,110,0.7567567567567568,0.6444444444444445,1
377,Regirock,Rock,,580,80,100,200,50,100,50,0.5135135135135135,0.8666666666666667,1
378,Regice,Ice,,580,80,50,100,100,200,50,0.24324324324324326,0.4222222222222222,0
379,Registeel,Steel,,580,80,75,150,75,150,50,0.3783783783783784,0.6444444444444445,1
380,Latias,Dragon,Psychic,600,80,80,90,110,130,110,0.40540540540540543,0.37777777777777777,1
380,Latias Mega Latias,Dragon,Psychic,700,80,100,120,140,150,110,0.5135135135135135,0.5111111111111111,1
381,Latios,Dragon,Psychic,600,80,90,80,130,110,110,0.4594594594594595,0.3333333333333333,1
381,Latios Mega Latios,Dragon,Psychic,700,80,130,100,160,120,110,0.6756756756756757,0.4222222222222222,1
382,Kyogre,Water,,670,100,100,90,150,140,90,0.5135135135135135,0.37777777777777777,1
382,Kyogre Primal Kyogre,Water,,770,100,150,90,180,160,90,0.7837837837837838,0.37777777777777777,1
383,Groudon,Ground,,670,100,150,140,100,90,90,0.7837837837837838,0.6,1
383,Groudon Primal Groudon,Ground,Fire,770,100,180,160,150,90,90,0.9459459459459459,0.6888888888888889,1
384,Rayquaza,Dragon,Flying,680,105,150,90,150,90,95,0.7837837837837838,0.37777777777777777,1
384,Rayquaza Mega Rayquaza,Dragon,Flying,780,105,180,100,180,100,115,0.9459459459459459,0.4222222222222222,1
385,Jirachi,Steel,Psychic,600,100,100,100,100,100,100,0.5135135135135135,0.4222222222222222,1
386,Deoxys Normal Forme,Psychic,,600,50,150,50,150,50,150,0.7837837837837838,0.2,1
386,Deoxys Attack Forme,Psychic,,600,50,180,20,180,20,150,0.9459459459459459,0.06666666666666667,1
386,Deoxys Defense Forme,Psychic,,600,50,70,160,70,160,90,0.35135135135135137,0.6888888888888889,1
386,Deoxys Speed Forme,Psychic,,600,50,95,90,95,90,180,0.4864864864864865,0.37777777777777777,1
387,Turtwig,Grass,,318,55,68,64,45,55,31,0.34054054054054056,0.26222222222222225,0
388,Grotle,Grass,,405,75,89,85,55,65,36,0.4540540540540541,0.35555555555555557,1
389,Torterra,Grass,Ground,525,95,109,105,75,85,56,0.5621621621621622,0.4444444444444444,1
390,Chimchar,Fire,,309,44,58,44,58,44,61,0.2864864864864865,0.17333333333333334,0
391,Monferno,Fire,Fighting,405,64,78,52,78,52,81,0.3945945945945946,0.2088888888888889,0
392,Infernape,Fire,Fighting,534,76,104,71,104,71,108,0.5351351351351351,0.29333333333333333,1
393,Piplup,Water,,314,53,51,53,61,56,40,0.24864864864864866,0.21333333333333335,0
394,Prinplup,Water,,405,64,66,68,81,76,50,0.32972972972972975,0.28,0
395,Empoleon,Water,Steel,530,84,86,88,111,101,60,0.43783783783783786,0.3688888888888889,1
396,Starly,Normal,Flying,245,40,55,30,30,30,60,0.2702702702702703,0.1111111111111111,0
397,Staravia,Normal,Flying,340,55,75,50,40,40,80,0.3783783783783784,0.2,0
398,Staraptor,Normal,Flying,485,85,120,70,50,60,100,0.6216216216216216,0.28888888888888886,1
399,Bidoof,Normal,,250,59,45,40,35,40,31,0.21621621621621623,0.15555555555555556,0
400,Bibarel,Normal,Water,410,79,85,60,55,60,71,0.43243243243243246,0.24444444444444444,0
401,Kricketot,Bug,,194,37,25,41,25,41,25,0.10810810810810811,0.16,0
402,Kricketune,Bug,,384,77,85,51,55,51,65,0.43243243243243246,0.20444444444444446,0
403,Shinx,Electric,,263,45,65,34,40,34,45,0.32432432432432434,0.1288888888888889,0
404,Luxio,Electric,,363,60,85,49,60,49,60,0.43243243243243246,0.19555555555555557,0
405,Luxray,Electric,,523,80,120,79,95,79,70,0.6216216216216216,0.3288888888888889,1
406,Budew,Grass,Poison,280,40,30,35,50,70,55,0.13513513513513514,0.13333333333333333,0
407,Roserade,Grass,Poison,515,60,70,65,125,105,90,0.35135135135135137,0.26666666666666666,0
408,Cranidos,Rock,,350,67,125,40,30,30,58,0.6486486486486487,0.15555555555555556,1
409,Rampardos,Rock,,495,97,165,60,65,50,58,0.8648648648648649,0.24444444444444444,1
410,Shieldon,Rock,Steel,350,30,42,118,42,88,30,0.2,0.5022222222222222,0
411,Bastiodon,Rock,Steel,495,60,52,168,47,138,30,0.25405405405405407,0.7244444444444444,1
412,Burmy,Bug,,224,40,29,45,29,45,36,0.12972972972972974,0.17777777777777778,0
413,Wormadam Plant Cloak,Bug,Grass,424,60,59,85,79,105,36,0.2918918918918919,0.35555555555555557,0
413,Wormadam Sandy Cloak,Bug,Ground,424,60,79,105,59,85,36,0.4,0.4444444444444444,1
413,Wormadam Trash Cloak,Bug,Steel,424,60,69,95,69,95,36,0.34594594594594597,0.4,0
414,Mothim,Bug,Flying,424,70,94,50,94,50,66,0.4810810810810811,0.2,0
415,Combee,Bug,Flying,244,30,30,42,30,42,70,0.13513513513513514,0.16444444444444445,0
416,Vespiquen,Bug,Flying,474,70,80,102,80,102,40,0.40540540540540543,0.4311111111111111,1
417,Pachirisu,Electric,,405,60,45,70,45,90,95,0.21621621621621623,0.28888888888888886,0
418,Buizel,Water,,330,55,65,35,60,30,85,0.32432432432432434,0.13333333333333333,0
